{
   "education": {
      "school": "University of South Dakota",
      "major": "Computer Science",
      "minor": "Math",
      "graduation": "05/2012",
      "awards": [
         "Computer Science outstanding student 2010",
         "Dean's List 2011"
      ]
   },
   "collegiate_involvement": {
      "position": "Treasurer",
      "organization": "Association for Computing Machinery",
      "started": "09/2010",
      "stopped": "05/2011",
      "roles_responsibilities": [
         "Assisted in leading up to 20 presentations a year over various Computer Science topics",
         "Hosted High School programming contents in conjunction with USD"
      ]
   }
}